MOVIELENS
…
# stampa la workTable
workTable

## # A tibble: 21 x 2
##    workID workType            
##     <dbl> <chr>               
##  1      0 other               
##  2      1 academic/educator   
##  3      2 artist              
##  4      3 clerical/admin      
##  5      4 college/grad student
##  6      5 customer service    
##  7      6 doctor/health care  
##  8      7 executive/managerial
##  9      8 farmer              
## 10      9 homemaker           
## # ... with 11 more rows
…
